[
    {
        "id" : 0,
        "text" : "Travel reminds those paying attention that they are not the only ship in the sea, that this is a huge world and that they are only a small, insignificant pea in it.."    },
    {
        "id" : 1,
        "text" : "This forces them to be adventurous, to live life to the fullest, to take the most of this precious gift of life and use the time they have to discover new things, meet new people and experience a completely different life."    },
    {
        "id" : 2,
        "text" : "To conclude, traveling is good for a person of any age. It not only helps people to form a better understanding of themselves, their beliefs and their lives, it also provides people with a better understanding of the world in which they live, even if it’s beyond their immediate environment."    }
]